Trabalho1_MSS_140151010/Trabalho1_SC/trace_file.vcd
$date
     Mar 31, 2017       12:10:50
$end

$version
 SystemC 2.3.1-Accellera --- Mar 10 2017 09:36:37
$end

$scope module SystemC $end
$var wire   32  aaaaa  A [31:0]  $end
$var wire   32  aaaab  B [31:0]  $end
$var wire    3  aaaac  opcode [2:0]  $end
$var wire   32  aaaad  Z [31:0]  $end
$var wire    1  aaaae  zero       $end
$upscope $end
$enddefinitions  $end

$comment
All initial values are dumped below at time 0 sec = 0 timescale units.
$end

$dumpvars
b0 aaaaa
b0 aaaab
b0 aaaac
b0 aaaad
1aaaae
$end

#2
b100 aaaaa
b100 aaaab
b1000 aaaad
0aaaae

#4
b11111111111111111111111111111100 aaaab
b0 aaaad
1aaaae

#6
b11111111111111111111111111111110 aaaaa
b11111111111111111111111111111110 aaaab
b11111111111111111111111111111100 aaaad
0aaaae

#8
b1110 aaaaa
b1010 aaaab
b1 aaaac
b100 aaaad

#10
b100 aaaaa
b1000 aaaab
b11111111111111111111111111111100 aaaad

#12
b1110 aaaaa
b11111111111111111111111111111110 aaaab
b10000 aaaad

#14
b11111111111111110000000000000000 aaaaa
b11110000111100001111111111111111 aaaab
b10 aaaac
b11110000111100000000000000000000 aaaad

#16
b1111111111111111 aaaab
b0 aaaad
1aaaae

#18
b11111111111111110000111100001111 aaaaa
b11110000111100001111111111111111 aaaab
b11110000111100000000111100001111 aaaad
0aaaae

#20
b11110000111100001111000011110000 aaaaa
b1111000011110000000000000000 aaaab
b11 aaaac
b11111111111111111111000011110000 aaaad

#22
b11111111111111111111111111111111 aaaaa
b0 aaaab
b11111111111111111111111111111111 aaaad

#24
b11110000111100000000000000000000 aaaaa
b1111000011110000000000000000 aaaab
b11111111111111110000000000000000 aaaad

#26
b11111111111111110000000000000000 aaaaa
b100 aaaac
b1111111111111111 aaaad

#28
b11111111111111111111111111111111 aaaaa
b0 aaaad
1aaaae

#30
b0 aaaaa
b11111111111111111111111111111111 aaaad
0aaaae

#32
b11110000111100001111000011110000 aaaaa
b1111111111111111 aaaab
b101 aaaac
b11110000111100000000111100001111 aaaad

#34
b1111000011110000111100001111 aaaab
b11111111111111111111111111111111 aaaad

#36
b11110000111100001111000011110000 aaaab
b0 aaaad
1aaaae

#38
b10000100010010010110001000000110 aaaaa
b110 aaaac
b10000100010010010110001000000110 aaaad
0aaaae

#40
b0 aaaaa
b0 aaaad
1aaaae

#42
b1110001100100110110001001010000 aaaaa
b1110001100100110110001001010000 aaaad
0aaaae

#44
b1 aaaaa
b0 aaaab
b111 aaaac
b0 aaaad
1aaaae

#46
b0 aaaaa
b1 aaaab
b1 aaaad
0aaaae

#48
b1 aaaaa
b0 aaaad
1aaaae

